actfunc_old/softplus8_pla_tb.vcd
$date
	Mon Nov 25 00:08:58 2024
$end
$version
	Icarus Verilog
$end
$timescale
	1ps
$end
$scope module softplus8_pla_tb $end
$var wire 16 ! y [15:0] $end
$var wire 16 " segres3 [15:0] $end
$var wire 32 # segmult0 [31:0] $end
$var reg 1 $ clk $end
$var reg 1 % rst $end
$var reg 16 & x [15:0] $end
$scope module uut $end
$var wire 1 $ clk $end
$var wire 1 % rst $end
$var wire 32 ' segmult0 [31:0] $end
$var wire 32 ( segmult1 [31:0] $end
$var wire 32 ) segmult2 [31:0] $end
$var wire 32 * segmult3 [31:0] $end
$var wire 16 + segres0 [15:0] $end
$var wire 16 , segres1 [15:0] $end
$var wire 16 - segres2 [15:0] $end
$var wire 16 . segres3 [15:0] $end
$var wire 16 / x [15:0] $end
$var wire 16 0 y [15:0] $end
$var parameter 144 1 BREAKPOINTS $end
$var parameter 32 2 FP $end
$var parameter 128 3 INTERCEPTS $end
$var parameter 32 4 SLICES $end
$var parameter 128 5 SLOPES $end
$var parameter 32 6 WIDTH $end
$var reg 16 7 mux [15:0] $end
$var reg 16 8 mux_reg [15:0] $end
$var reg 9 9 sel [8:0] $end
$var reg 9 : sel_reg1 [8:0] $end
$var reg 9 ; sel_reg2 [8:0] $end
$var reg 16 < x_reg [15:0] $end
$var integer 32 = i [31:0] $end
$upscope $end
$upscope $end
$enddefinitions $end
$comment Show the parameter values. $end
$dumpall
b10000 6
b111111110000000011111010000000001110011000000000101011000000000001010100000000000001101000000000000001100000000000000001 5
b1000 4
b10010000000000100000000000000101101100000000101100010000000010110001000000000101101100000000001000000000000000001001 3
b1000 2
b1100000000000000100100000000000001100000000000000011000000000000000000000001111111010000000111111010000000011111011100000001111101000000000 1
$end
#0
$dumpvars
b1000 =
b0 <
b0 ;
b0 :
b1111 9
b0 8
b0 7
b0 0
b0 /
b0 .
b0 -
b0 ,
b0 +
b0 *
b0 )
b0 (
b0 '
b0 &
1%
0$
b0 #
b0 "
b0 !
$end
#5000
b1000 =
1$
#10000
0$
#15000
b1000 =
1$
#20000
0$
0%
#25000
b10110001 "
b10110001 .
b1011011 -
b100000 ,
b1001 +
b1111 :
b1000 =
1$
#30000
0$
b1111100100000000 &
b1111100100000000 /
#35000
b10110001 7
b0 9
b1111 ;
b1111100100000000 <
b1000 =
1$
#40000
0$
b1111101100000000 &
b1111101100000000 /
#45000
b10110001 7
b1 9
b10110001 !
b10110001 0
b10110001 8
b11111111111111011011010000000000 *
b11111111111111110100101000000000 )
b11111111111111111101011000000000 (
b11111111111111111111100100000000 #
b11111111111111111111100100000000 '
b0 :
b1111101100000000 <
b1000 =
1$
#50000
0$
b1111110000000000 &
b1111110000000000 /
#55000
b0 7
b11 9
b1111111001100101 "
b1111111001100101 .
b1111111110100101 -
b1111111111110110 ,
b10 +
b0 ;
b11111111111111100101110000000000 *
b11111111111111110111111000000000 )
b11111111111111111110001000000000 (
b11111111111111111111101100000000 #
b11111111111111111111101100000000 '
b1 :
b1111110000000000 <
b1000 =
1$
#60000
0$
b1111110100000000 &
b1111110100000000 /
#65000
b100 7
b0 !
b0 0
b0 8
b1111111100001101 "
b1111111100001101 .
b1111111111011001 -
b10 ,
b100 +
b1 ;
b11111111111111101011000000000000 *
b11111111111111111001100000000000 )
b11111111111111111110100000000000 (
b11111111111111111111110000000000 #
b11111111111111111111110000000000 '
b11 :
b1111110100000000 <
b1000 =
1$
#70000
0$
b1111111000000000 &
b1111111000000000 /
#75000
b1000 7
b111 9
b100 !
b100 0
b100 8
b1111111101100001 "
b1111111101100001 .
b1111111111110011 -
b1000 ,
b101 +
b11 ;
b11111111111111110000010000000000 *
b11111111111111111011001000000000 )
b11111111111111111110111000000000 (
b11111111111111111111110100000000 #
b11111111111111111111110100000000 '
b1111111000000000 <
b1000 =
1$
#80000
0$
b1111111010000000 &
b1111111010000000 /
#85000
b1110 7
b1000 !
b1000 0
b1000 8
b1111111110110101 "
b1111111110110101 .
b1101 -
b1110 ,
b110 +
b11111111111111110101100000000000 *
b11111111111111111100110000000000 )
b11111111111111111111010000000000 (
b11111111111111111111111000000000 #
b11111111111111111111111000000000 '
b111 :
b1111111010000000 <
b1000 =
1$
#90000
0$
b1111111100000000 &
b1111111100000000 /
#95000
b100111 7
b1111 9
b1110 !
b1110 0
b1110 8
b1001 "
b1001 .
b100111 -
b10100 ,
b111 +
b111 ;
b11111111111111111000001000000000 *
b11111111111111111101100100000000 )
b11111111111111111111011100000000 (
b11111111111111111111111010000000 #
b11111111111111111111111010000000 '
b1111111100000000 <
b1000 =
1$
#100000
0$
b0 &
b0 /
#105000
b110100 7
b100111 !
b100111 0
b100111 8
b110011 "
b110011 .
b110100 -
b10111 ,
b11111111111111111010110000000000 *
b11111111111111111110011000000000 )
b11111111111111111111101000000000 (
b11111111111111111111111100000000 #
b11111111111111111111111100000000 '
b1111 :
b0 <
b1000 =
1$
#110000
0$
b100000000 &
b100000000 /
#115000
b1011101 7
b11111 9
b110100 !
b110100 0
b110100 8
b1011101 "
b1011101 .
b1000001 -
b11010 ,
b1000 +
b1111 ;
b0 *
b0 )
b0 (
b0 #
b0 '
b100000000 <
b1000 =
1$
#120000
0$
b110000000 &
b110000000 /
#125000
b10110001 7
b1011101 !
b1011101 0
b1011101 8
b10110001 "
b10110001 .
b1011011 -
b100000 ,
b1001 +
b101010000000000 *
b1101000000000 )
b11000000000 (
b100000000 #
b100000000 '
b11111 :
b110000000 <
b1000 =
1$
#130000
0$
b1000000000 &
b1000000000 /
#135000
b101011101 7
b111111 9
b10110001 !
b10110001 0
b10110001 8
b100000101 "
b100000101 .
b1110101 -
b100110 ,
b1010 +
b11111 ;
b111111000000000 *
b10011100000000 )
b100100000000 (
b110000000 #
b110000000 '
b1000000000 <
b1000 =
1$
#140000
0$
b1100000000 &
b1100000000 /
#145000
b110110011 7
b101011101 !
b101011101 0
b101011101 8
b100101111 "
b100101111 .
b10000010 -
b101001 ,
b1010100000000000 *
b11010000000000 )
b110000000000 (
b1000000000 #
b1000000000 '
b111111 :
b1100000000 <
b1000 =
1$
#150000
0$
b10000000000 &
b10000000000 /
#155000
b1000100111 7
b1111111 9
b110110011 !
b110110011 0
b110110011 8
b101011001 "
b101011001 .
b10001111 -
b101100 ,
b1011 +
b111111 ;
b1111110000000000 *
b100111000000000 )
b1001000000000 (
b1100000000 #
b1100000000 '
b10000000000 <
b1000 =
1$
#160000
0$
b10100000000 &
b10100000000 /
#165000
b1100001101 7
b11111111 9
b1000100111 !
b1000100111 0
b1000100111 8
b110101101 "
b110101101 .
b10101001 -
b110010 ,
b1100 +
b10101000000000000 *
b110100000000000 )
b1100000000000 (
b10000000000 #
b10000000000 '
b1111111 :
b10100000000 <
b1000 =
1$
#170000
0$
b11100000000 &
b11100000000 /
#175000
b10000001000 7
b111111111 9
b1100001101 !
b1100001101 0
b1100001101 8
b1000000001 "
b1000000001 .
b11000011 -
b111000 ,
b1101 +
b1111111 ;
b11010010000000000 *
b1000001000000000 )
b1111000000000 (
b10100000000 #
b10100000000 '
b11111111 :
b11100000000 <
b1000 =
1$
#180000
0$
#185000
b10100000100 7
b10000001000 !
b10000001000 0
b10000001000 8
b1001010101 "
b1001010101 .
b11011101 -
b111110 ,
b1110 +
b11111111 ;
b100100110000000000 *
b1011011000000000 )
b10101000000000 (
b11100000000 #
b11100000000 '
b111111111 :
b1000 =
1$
#190000
0$
#195000
b11100000010 7
b10100000100 !
b10100000100 0
b10100000100 8
b1011111101 "
b1011111101 .
b100010001 -
b1001010 ,
b10000 +
b111111111 ;
b1000 =
1$
#200000
0$
#205000
b11100000010 !
b11100000010 0
b11100000010 8
b1000 =
1$
#210000
0$
#215000
b1000 =
1$
