actfunc_old/softplus4_pla_tb.vcd
$date
	Mon Nov 25 00:04:35 2024
$end
$version
	Icarus Verilog
$end
$timescale
	1ps
$end
$scope module softplus4_pla_tb $end
$var wire 16 ! y [15:0] $end
$var wire 16 " segres3 [15:0] $end
$var wire 32 # segmult0 [31:0] $end
$var reg 1 $ clk $end
$var reg 1 % rst $end
$var reg 16 & x [15:0] $end
$scope module uut $end
$var wire 1 $ clk $end
$var wire 1 % rst $end
$var wire 32 ' segmult0 [31:0] $end
$var wire 32 ( segmult1 [31:0] $end
$var wire 32 ) segmult2 [31:0] $end
$var wire 32 * segmult3 [31:0] $end
$var wire 16 + segres0 [15:0] $end
$var wire 16 , segres1 [15:0] $end
$var wire 16 - segres2 [15:0] $end
$var wire 16 . segres3 [15:0] $end
$var wire 16 / x [15:0] $end
$var wire 16 0 y [15:0] $end
$var parameter 80 1 BREAKPOINTS $end
$var parameter 32 2 FP $end
$var parameter 64 3 INTERCEPTS $end
$var parameter 32 4 SLICES $end
$var parameter 64 5 SLOPES $end
$var parameter 32 6 WIDTH $end
$var reg 16 7 mux [15:0] $end
$var reg 16 8 mux_reg [15:0] $end
$var reg 5 9 sel [4:0] $end
$var reg 5 : sel_reg1 [4:0] $end
$var reg 5 ; sel_reg2 [4:0] $end
$var reg 16 < x_reg [15:0] $end
$var integer 32 = i [31:0] $end
$upscope $end
$upscope $end
$enddefinitions $end
$comment Show the parameter values. $end
$dumpall
b10000 6
b11111100000000001100100100000000001101110000000000000100 5
b100 4
b11000000000001011000100000000101100010000000000011000 3
b1000 2
b110000000000000001100000000000000000000000011111101000000001111101000000000 1
$end
#0
$dumpvars
b100 =
b0 <
b0 ;
b0 :
b11 9
b0 8
b0 7
b0 0
b0 /
b0 .
b0 -
b0 ,
b0 +
b0 *
b0 )
b0 (
b0 '
b0 &
1%
0$
b0 #
b0 "
b0 !
$end
#5000
b100 =
1$
#10000
0$
#15000
b100 =
1$
#20000
0$
0%
#25000
b11000 "
b11000 .
b10110001 -
b10110001 ,
b11000 +
b11 :
b100 =
1$
#30000
0$
b1111100100000000 &
b1111100100000000 /
#35000
b10110001 7
b0 9
b11 ;
b1111100100000000 <
b100 =
1$
#40000
0$
b1111101100000000 &
b1111101100000000 /
#45000
b10110001 7
b1 9
b10110001 !
b10110001 0
b10110001 8
b11111111111110010001110000000000 *
b11111111111110101000000100000000 )
b11111111111111100111111100000000 (
b11111111111111111110010000000000 #
b11111111111111111110010000000000 '
b0 :
b1111101100000000 <
b100 =
1$
#50000
0$
b1111110000000000 &
b1111110000000000 /
#55000
b0 7
b1111100100110100 "
b1111100100110100 .
b1111101100110010 -
b1111111100110000 ,
b1111111111111100 +
b0 ;
b11111111111110110001010000000000 *
b11111111111111000001001100000000 )
b11111111111111101110110100000000 (
b11111111111111111110110000000000 #
b11111111111111111110110000000000 '
b1 :
b1111110000000000 <
b100 =
1$
#60000
0$
b1111110100000000 &
b1111110100000000 /
#65000
b100 7
b0 !
b0 0
b0 8
b1111101100101100 "
b1111101100101100 .
b1111110011000100 -
b1111111110011110 ,
b100 +
b1 ;
b11111111111111000001000000000000 *
b11111111111111001101110000000000 )
b11111111111111110010010000000000 (
b11111111111111111111000000000000 #
b11111111111111111111000000000000 '
b1111110100000000 <
b100 =
1$
#70000
0$
b1111111000000000 &
b1111111000000000 /
#75000
b1000 7
b11 9
b100 !
b100 0
b100 8
b1111110000101000 "
b1111110000101000 .
b1111110110001101 -
b1111111111010101 ,
b1000 +
b11111111111111010000110000000000 *
b11111111111111011010010100000000 )
b11111111111111110101101100000000 (
b11111111111111111111010000000000 #
b11111111111111111111010000000000 '
b1111111000000000 <
b100 =
1$
#80000
0$
b1111111010000000 &
b1111111010000000 /
#85000
b1100 7
b1000 !
b1000 0
b1000 8
b1111110100100100 "
b1111110100100100 .
b1111111001010110 -
b1100 ,
b1100 +
b11111111111111100000100000000000 *
b11111111111111100110111000000000 )
b11111111111111111001001000000000 (
b11111111111111111111100000000000 #
b11111111111111111111100000000000 '
b11 :
b1111111010000000 <
b100 =
1$
#90000
0$
b1111111100000000 &
b1111111100000000 /
#95000
b1000011 7
b1100 !
b1100 0
b1100 8
b1111111000100000 "
b1111111000100000 .
b1111111100011111 -
b1000011 ,
b10000 +
b11 ;
b11111111111111101000011000000000 *
b11111111111111101101001010000000 )
b11111111111111111010110110000000 (
b11111111111111111111101000000000 #
b11111111111111111111101000000000 '
b1111111100000000 <
b100 =
1$
#100000
0$
b0 &
b0 /
#105000
b1011110 7
b1000011 !
b1000011 0
b1000011 8
b1111111010011110 "
b1111111010011110 .
b1111111110000011 -
b1011110 ,
b10010 +
b11111111111111110000010000000000 *
b11111111111111110011011100000000 )
b11111111111111111100100100000000 (
b11111111111111111111110000000000 #
b11111111111111111111110000000000 '
b0 <
b100 =
1$
#110000
0$
b100000000 &
b100000000 /
#115000
b1111010 7
b111 9
b1011110 !
b1011110 0
b1011110 8
b1111111100011100 "
b1111111100011100 .
b1111111111101000 -
b1111010 ,
b10100 +
b0 *
b0 )
b0 (
b0 #
b0 '
b100000000 <
b100 =
1$
#120000
0$
b110000000 &
b110000000 /
#125000
b10110001 7
b1111010 !
b1111010 0
b1111010 8
b11000 "
b11000 .
b10110001 -
b10110001 ,
b11000 +
b1111110000000000 *
b1100100100000000 )
b11011100000000 (
b10000000000 #
b10000000000 '
b111 :
b110000000 <
b100 =
1$
#130000
0$
b1000000000 &
b1000000000 /
#135000
b101111010 7
b10110001 !
b10110001 0
b10110001 8
b100010100 "
b100010100 .
b101111010 -
b11101000 ,
b11100 +
b111 ;
b10111101000000000 *
b10010110110000000 )
b101001010000000 (
b11000000000 #
b11000000000 '
b1000000000 <
b100 =
1$
#140000
0$
b1100000000 &
b1100000000 /
#145000
b111011110 7
b101111010 !
b101111010 0
b101111010 8
b110010010 "
b110010010 .
b111011110 -
b100000011 ,
b11110 +
b11111100000000000 *
b11001001000000000 )
b110111000000000 (
b100000000000 #
b100000000000 '
b1100000000 <
b100 =
1$
#150000
0$
b10000000000 &
b10000000000 /
#155000
b1001000011 7
b1111 9
b111011110 !
b111011110 0
b111011110 8
b1000010000 "
b1000010000 .
b1001000011 -
b100011111 ,
b100000 +
b101111010000000000 *
b100101101100000000 )
b1010010100000000 (
b110000000000 #
b110000000000 '
b10000000000 <
b100 =
1$
#160000
0$
b10100000000 &
b10100000000 /
#165000
b1100001100 7
b1001000011 !
b1001000011 0
b1001000011 8
b1100001100 "
b1100001100 .
b1100001100 -
b101010110 ,
b100100 +
b111111000000000000 *
b110010010000000000 )
b1101110000000000 (
b1000000000000 #
b1000000000000 '
b1111 :
b10100000000 <
b100 =
1$
#170000
0$
b11100000000 &
b11100000000 /
#175000
b10000001000 7
b11111 9
b1100001100 !
b1100001100 0
b1100001100 8
b10000001000 "
b10000001000 .
b1111010101 -
b110001101 ,
b101000 +
b1111 ;
b1001110110000000000 *
b111110110100000000 )
b10001001100000000 (
b1010000000000 #
b1010000000000 '
b11100000000 <
b100 =
1$
#180000
0$
#185000
b10100000100 7
b10000001000 !
b10000001000 0
b10000001000 8
b10100000100 "
b10100000100 .
b10010011110 -
b111000100 ,
b101100 +
b1101110010000000000 *
b1010111111100000000 )
b11000000100000000 (
b1110000000000 #
b1110000000000 '
b11111 :
b100 =
1$
#190000
0$
#195000
b11011111100 7
b10100000100 !
b10100000100 0
b10100000100 8
b11011111100 "
b11011111100 .
b11000110000 -
b1000110010 ,
b110100 +
b11111 ;
b100 =
1$
#200000
0$
#205000
b11011111100 !
b11011111100 0
b11011111100 8
b100 =
1$
#210000
0$
#215000
b100 =
1$
